<svg xmlns="http://www.w3.org/2000/svg" xmlns:xlink="http://www.w3.org/1999/xlink" width="4669.182" height="1489.221" viewBox="0 0 4669.182 1489.221">
  <defs>
    <linearGradient id="linear-gradient" x1="0.5" x2="0.5" y2="1" gradientUnits="objectBoundingBox">
      <stop offset="0" stop-color="#009bff"/>
      <stop offset="0.105" stop-color="#009fff"/>
      <stop offset="1" stop-color="#00c0ff"/>
    </linearGradient>
  </defs>
  <g id="Grupo_64" data-name="Grupo 64" transform="translate(-1688 -2141)">
    <g id="Grupo_34" data-name="Grupo 34" transform="translate(3477.894 2471)">
      <g id="Grupo_20" data-name="Grupo 20" transform="translate(0 0)">
        <g id="Grupo_11" data-name="Grupo 11" transform="translate(0 0)">
          <path id="Caminho_211" data-name="Caminho 211" d="M85.8,183.028V302.336H3.54V-37.788H136.8q60.616,0,92.368,30.068t31.751,81.062q0,31.751-14.192,56.527t-42.095,38.968q-27.9,14.192-67.832,14.192Zm41.854-65.908q49.551,0,49.551-43.778,0-44.74-49.551-44.741H85.8V117.12ZM462.972-43.08q48.108,0,87.316,22.37A162.975,162.975,0,0,1,612.107,41.35q22.611,39.689,22.611,89.722t-22.851,89.962a164.22,164.22,0,0,1-62.059,62.3Q510.6,305.7,462.972,305.7t-86.835-22.37a164.22,164.22,0,0,1-62.059-62.3q-22.851-39.93-22.851-89.962T314.078,41.35A164.713,164.713,0,0,1,376.137-20.71Q415.345-43.08,462.972-43.08Zm0,76.492q-40.411,0-64.224,26.219t-23.814,71.44q0,44.74,23.814,71.2t64.224,26.459q39.93,0,63.984-26.459t24.054-71.2q0-44.74-23.813-71.2T462.972,33.412Zm297.789-71.2V158.493q0,33.676,15.154,51.476t44.019,17.8q28.865,0,44.019-17.8t15.154-51.476V-37.788h82.265V158.493q0,48.108-18.762,81.062t-51.235,49.551Q858.9,305.7,818.01,305.7t-72.162-16.357q-31.27-16.357-49.07-49.551t-17.8-81.3V-37.788ZM1098.48,183.028V302.336h-82.265V-37.788h133.259q60.616,0,92.368,30.068t31.751,81.062q0,31.751-14.192,56.527t-42.094,38.968q-27.9,14.192-67.832,14.192Zm41.854-65.908q49.551,0,49.551-43.778,0-44.74-49.551-44.741H1098.48V117.12Zm384.383,123.157H1397.231l-21.167,62.059h-86.595l124.6-337.719h94.773l124.6,337.719h-87.557Zm-21.168-62.54L1461.215,52.655,1418.4,177.736Zm467.61-46.184q0,50.032-21.408,88.759t-61.578,60.376q-40.17,21.649-94.532,21.649H1665.193V-37.788h128.448q54.843,0,94.773,21.168t61.338,59.654Q1971.161,81.52,1971.16,131.552Zm-184.735,97.178q48.108,0,74.808-25.5t26.7-71.681q0-46.184-26.7-71.681t-74.808-25.5h-38.968V228.731ZM2179.468-43.08q48.108,0,87.316,22.37A162.976,162.976,0,0,1,2328.6,41.35q22.611,39.689,22.611,89.722t-22.852,89.962a164.216,164.216,0,0,1-62.059,62.3q-39.208,22.37-86.835,22.37t-86.835-22.37a164.223,164.223,0,0,1-62.059-62.3q-22.851-39.93-22.851-89.962t22.851-89.722a164.715,164.715,0,0,1,62.059-62.059Q2131.841-43.08,2179.468-43.08Zm0,76.492q-40.41,0-64.224,26.219t-23.814,71.44q0,44.74,23.814,71.2t64.224,26.459q39.93,0,63.984-26.459t24.054-71.2q0-44.74-23.813-71.2T2179.468,33.412ZM2572.03,302.336l-73.605-128.449h-18.762V302.336H2397.4V-37.788h140.476q40.411,0,68.313,13.951t41.854,38.246q13.951,24.295,13.951,55.565,0,37.043-20.446,63.022t-59.414,35.6l80.822,133.74ZM2479.663,117.6h50.995q24.535,0,36.081-10.824t11.546-31.992q0-20.205-11.787-31.751t-35.84-11.546h-50.995ZM85.8,443.293V783.417H3.54V443.293ZM444.691,783.417H362.426L224.837,574.628V783.417H142.572V443.293h82.265L362.426,654.006V443.293h82.265ZM745.848,443.293V508.72H653.48v274.7H570.734V508.72H479.329V443.293Zm116.9,65.427v71.2H977.729v62.059H862.75v75.53H992.161v65.908H780.486V443.293H992.161V508.72ZM1121.091,720.4h109.686v63.022H1038.826V443.293h82.265Zm229.956-277.1V783.417h-82.265V443.293Zm216.005-3.368q63.984,0,105.357,31.27t51.476,84.67h-87.075a67.147,67.147,0,0,0-26.46-29.105q-17.8-10.824-42.816-10.824-38.967,0-62.54,26.219t-23.573,70.959q0,48.589,24.776,74.568t70.478,25.978q29.346,0,51.476-16.116t31.27-45.943H1555.507V592.428h172.708v81.3a165.857,165.857,0,0,1-30.789,55.324q-21.167,25.5-54.121,41.373T1568.015,786.3q-51.476,0-89.962-21.889a149.949,149.949,0,0,1-59.413-61.338q-20.927-39.449-20.927-89.962t20.927-89.962a150.385,150.385,0,0,1,59.173-61.338Q1516.058,439.925,1567.052,439.925Zm289.611,68.795v71.2h114.978v62.059H1856.663v75.53h129.411v65.908H1774.4V443.293h211.676V508.72Zm478.194,274.7h-82.265L2115,574.628V783.417h-82.265V443.293H2115l137.589,210.713V443.293h82.265Zm301.156-340.124V508.72h-92.367v274.7H2460.9V508.72H2369.5V443.293Zm116.9,65.427v71.2h114.979v62.059H2752.916v75.53h129.411v65.908H2670.652V443.293h211.675V508.72Z" transform="translate(-3.54 43.08)" fill="#009eff" stroke="rgba(0,0,0,0)" stroke-width="1"/>
        </g>
      </g>
    </g>
    <g id="Grupo_62" data-name="Grupo 62" transform="translate(-6534.422 -4505.48)">
      <path id="Caminho_324" data-name="Caminho 324" d="M9403.395,6646.48H8530.668c-170.24,0-308.246,138.006-308.246,308.246V7021.6c26.025-64.183,64.814-139.49,123.217-160.967,77.275-28.417,176.83,4.027,249.395,67.181a621.574,621.574,0,0,1,744,0c72.564-63.153,172.121-95.6,249.395-67.181,58.4,21.477,97.191,96.786,123.217,160.967v-66.877C9711.641,6784.486,9573.635,6646.48,9403.395,6646.48Z" transform="translate(0 0)" fill="url(#linear-gradient)"/>
      <path id="Caminho_325" data-name="Caminho 325" d="M9571.307,7123.964c-2.154.911-4.451,1.8-6.867,2.673a621.779,621.779,0,0,1,23.984,171.529c0,343.186-278.207,621.393-621.393,621.393s-621.393-278.207-621.393-621.393a621.779,621.779,0,0,1,23.984-171.529c-2.418-.87-4.713-1.762-6.865-2.673-35.531-15.042-22.762-67.306-55.451-45.272-38.5,25.952-65.855,36.328-84.885,36.069v585.256c0,170.24,138.006,308.247,308.246,308.247h872.727c170.24,0,308.246-138.007,308.246-308.247V7114.761c-19.029.259-46.385-10.117-84.887-36.069C9594.064,7056.659,9606.834,7108.922,9571.307,7123.964Z" transform="translate(0 127.438)" fill="url(#linear-gradient)"/>
      <path id="Caminho_326" data-name="Caminho 326" d="M9235.084,7425.134c33.357,1.026,77.219-.557,109.3-10.33,42.785-13.038,66.334-43.919,80.8-84.854,13.375-37.859,19.848-78.084,28.986-117.088,3.973-16.955,3.9-35.845,11.715-51.644,5.857-11.844,15.213-14.624,22.8-23.628,7.6-9.02,6.1-29.939,6.814-41.069.264-4.108,1.963-10.976.52-14.906-7.312-19.9-37.832-19.651-55.332-22.288-37.937-5.716-76.33-9.088-114.609-11.549-76.6-4.926-154.08-2.233-229.439,13.1-22.777,4.636-44.891,10.883-66.9,17.689a4.482,4.482,0,0,1-1.24.385c-11.635,3.609-23.246,7.359-34.912,11.121-27.238,8.779-54.3,14.337-82.955,10.843-35.119-4.282-67.99-17.88-101.785-27.55a707.66,707.66,0,0,0-113.768-22.394c-74.295-8.552-148.949-5.678-223.227,1.383-20.789,1.977-41.553,4.324-62.184,7.568-17.945,2.821-46.266,2.724-51.418,24.084-3.314,13.737.633,45.26,9.35,54.669,7.371,7.956,15.182,11.222,20.543,21.882,7.045,14,7.131,29.915,10.248,44.975,3.537,17.067,8.076,33.959,11.721,51.021,7.631,35.716,15.135,73.381,32.914,105.715,32.4,58.925,115.643,64.778,176.2,62.888q2.44-8.03,5.313-15.784c-33.91,2.2-80.447,1.651-112.057-10.959-26.459-10.555-43.881-32.547-55.668-57.832a293.678,293.678,0,0,1-24.043-82.487c-4.572-32.517-8.764-72.571-1.947-104.977,13.119-62.375,78.029-76.218,131.84-83.155,71.93-9.273,150.268-4.954,219.213,19.028,56.5,19.651,61.414,71.555,53.848,123.709q17.253-5.139,34.891-8.533c8.785-26.965,22.439-55.866,54.545-57.363,33.713-1.571,48.881,28.3,58.123,56.063a339.688,339.688,0,0,1,35,8c-4.127-28.405-6.121-60.19,7.375-86.19,14.594-28.118,46.725-36.717,75.244-43.8a518.951,518.951,0,0,1,216.26-6.994c18.6,3.346,37.219,7.129,53.92,15.036a6.18,6.18,0,0,1,2.943,1.421,92.045,92.045,0,0,1,22.371,15.811c19.8,19.136,28.3,42.342,28.758,69.382.285,16.662.152,33.874-.838,51.174a4.686,4.686,0,0,1-.2,3.2c-2.961,46.517-12.514,93.465-38.441,131.9-32.209,47.746-102.764,50.956-155.789,47.575.318.871.674,1.724.982,2.6C9232.367,7416.256,9233.756,7420.667,9235.084,7425.134Z" transform="translate(40.198 119.134)" fill="url(#linear-gradient)"/>
      <ellipse id="Elipse_20" data-name="Elipse 20" cx="35.613" cy="52.563" rx="35.613" ry="52.563" transform="translate(8633.072 7341.455)" fill="url(#linear-gradient)"/>
      <ellipse id="Elipse_21" data-name="Elipse 21" cx="35.613" cy="52.563" rx="35.613" ry="52.563" transform="translate(9225.459 7341.455)" fill="url(#linear-gradient)"/>
      <path id="Caminho_327" data-name="Caminho 327" d="M8660.979,7142.1c17.513-7.53-11.341-20.883-19.385-20.336-20.068,1.361-135.426,15.822-151.946,35.884-15.18,18.434-1.24,25.254,8.33,17,16.9-14.572,54.172-19.351,85.941-21.448C8618.293,7150.938,8628.619,7156.02,8660.979,7142.1Z" transform="translate(77.77 141.887)" fill="url(#linear-gradient)"/>
      <path id="Caminho_328" data-name="Caminho 328" d="M8964.542,7111.149c31.45,28.033,56.916,21.14,90.076,10.21,33.731-11.118,73.924-22.286,96.5-14.108,12.784,4.631,25.388-6.784,3.406-19.282-23.923-13.6-98.568,14.507-139.673,15.274-8.844.166-13.607.124-35.88-6.962C8971.322,7093.847,8942.727,7091.707,8964.542,7111.149Z" transform="translate(219.149 130.694)" fill="url(#linear-gradient)"/>
      <path id="Caminho_329" data-name="Caminho 329" d="M8929.084,7502.269c-15.62,10.153-49.14,26.5-104.34,27.753-54.881,1.246-87.467-14.844-103.215-25.854a3.416,3.416,0,0,0-4.914,4.5c12.068,20.888,42.466,57.116,108.129,57.116,67.7,0,97.914-38.518,109.2-59.02A3.413,3.413,0,0,0,8929.084,7502.269Z" transform="translate(147.395 255.316)" fill="url(#linear-gradient)"/>
      <path id="Caminho_330" data-name="Caminho 330" d="M8716.345,7288.53c-26.755,26.663-47.47,60.974-52.933,98.764-4.993,34.517,9.3,59.99,43.165,70.79,33.763,10.766,59.41-8.029,69.592-40.082,5.9-18.588,7.067-38.651,8.362-57.981,1.7-25.337,1.769-50.853-4.96-75.511C8767.01,7248.081,8735.565,7269.375,8716.345,7288.53Z" transform="translate(131.364 184.554)" fill="url(#linear-gradient)"/>
      <path id="Caminho_331" data-name="Caminho 331" d="M8849.259,7283.686a4.7,4.7,0,0,0-.335.871c-10.237,37.527-7.583,81.329-.151,119.287,5.927,30.267,24.085,61.4,59.334,57.392,30.392-3.461,58.073-24.567,58.371-56.706.349-37.812-18.351-74.675-42.282-102.889C8906.484,7280.76,8864.9,7240.546,8849.259,7283.686Z" transform="translate(185.025 184.508)" fill="url(#linear-gradient)"/>
      <path id="Caminho_332" data-name="Caminho 332" d="M9139.011,7474.584c13.1-49.852,1.457-105.395-22.848-149.945-49.237-90.248-149.387-147.468-251.534-147.23-117.824,2.992-240.056,81.087-272.048,198.528-12.368,45.4-13.913,106.145,21.513,142.012,28.969,29.332,73.843,35.693,113.14,37.467,58.144,2.626,116.644,2.178,174.835,1.758,49.793-.356,102.719,3.087,151.586-8.157C9094.135,7539.7,9128.03,7516.359,9139.011,7474.584Zm-240.9,62.607c-52.062.374-104.4.775-156.422-1.573-35.157-1.588-75.306-7.278-101.224-33.521-31.694-32.091-30.311-86.438-19.246-127.055,28.622-105.071,137.982-174.941,243.395-177.62,91.39-.211,180.991,50.981,225.042,131.726,21.745,39.857,32.167,89.552,20.443,134.15-9.825,37.376-40.151,58.261-76.368,66.595C8990.015,7539.952,8942.664,7536.871,8898.115,7537.191Z" transform="translate(108.126 158.503)" fill="url(#linear-gradient)"/>
    </g>
  </g>
</svg>
