<?xml version="1.0" encoding="UTF-8"?>
<svg width="122px" height="147px" viewBox="0 0 122 147" version="1.1" xmlns="http://www.w3.org/2000/svg" xmlns:xlink="http://www.w3.org/1999/xlink">
    <!-- Generator: Sketch 59.1 (86144) - https://sketch.com -->
    <title>Group 2</title>
    <desc>Created with Sketch.</desc>
    <g id="Page-1" stroke="none" stroke-width="1" fill="none" fill-rule="evenodd">
        <g id="Group-2" fill-rule="nonzero">
            <g id="Calculator_2">
                <path d="M112.3,146.7 L9.6,146.7 C4.8,146.7 0.8,142.8 0.8,137.9 L0.8,9.6 C0.8,4.8 4.7,0.8 9.6,0.8 L112.3,0.8 C117.1,0.8 121.1,4.7 121.1,9.6 L121.1,138 C121.1,142.8 117.2,146.7 112.3,146.7 Z" id="Shape" fill="#5EB6FF"></path>
                <path d="M86.3,44.5 L13.1,44.5 C10.4,44.5 8.1,42.3 8.1,39.5 L8.1,15.6 C8.1,12.9 10.3,10.6 13.1,10.6 L108.9,10.6 C111.6,10.6 113.9,12.8 113.9,15.6 L113.9,39.5 C113.9,42.2 111.7,44.5 108.9,44.5 L96.7,44.5" id="Shape" fill="#FFFFFF"></path>
                <path d="M113.8,61.5 L113.8,129.8 C113.8,134.1 110.3,137.6 106,137.6 L15.9,137.6 C11.6,137.6 8.1,134.1 8.1,129.8 L8.1,61.5 C8.1,57.2 11.6,53.7 15.9,53.7 L106,53.7 C110.3,53.7 113.8,57.2 113.8,61.5 Z" id="Shape" fill="#DFECFD"></path>
                <polygon id="Shape" fill="#C5DCFA" points="113.8 94.1 113.8 97.3 62.6 97.3 62.6 137.7 59.4 137.7 59.4 97.3 8.1 97.3 8.1 94.1 59.4 94.1 59.4 53.7 62.6 53.7 62.6 94.1"></polygon>
                <g id="Group" transform="translate(24.000000, 65.000000)" fill="#5EB6FF">
                    <path d="M10.7,20.3 C9.8,20.3 9.1,19.6 9.1,18.7 L9.1,2.3 C9.1,1.4 9.8,0.7 10.7,0.7 C11.6,0.7 12.3,1.4 12.3,2.3 L12.3,18.7 C12.3,19.6 11.6,20.3 10.7,20.3 Z" id="Shape"></path>
                    <path d="M18.9,12.2 L2.5,12.2 C1.6,12.2 0.9,11.5 0.9,10.6 C0.9,9.7 1.6,9 2.5,9 L18.9,9 C19.8,9 20.5,9.7 20.5,10.6 C20.5,11.5 19.8,12.2 18.9,12.2 Z" id="Shape"></path>
                </g>
                <g id="Group" transform="translate(27.000000, 110.000000)" fill="#5EB6FF">
                    <path d="M1.9,14.9 C1.5,14.9 1.1,14.7 0.8,14.4 C0.2,13.8 0.2,12.8 0.8,12.1 L12.4,0.5 C13,-0.1 14,-0.1 14.7,0.5 C15.3,1.1 15.3,2.1 14.7,2.8 L3.1,14.4 C2.7,14.7 2.3,14.9 1.9,14.9 Z" id="Shape"></path>
                    <path d="M13.5,14.9 C13.1,14.9 12.7,14.7 12.4,14.4 L0.8,2.8 C0.2,2.2 0.2,1.2 0.8,0.5 C1.4,-0.1 2.4,-0.1 3.1,0.5 L14.7,12.1 C15.3,12.7 15.3,13.7 14.7,14.4 C14.3,14.7 13.9,14.9 13.5,14.9 Z" id="Shape"></path>
                </g>
                <path d="M96.2,77.2 L79.8,77.2 C78.9,77.2 78.2,76.5 78.2,75.6 C78.2,74.7 78.9,74 79.8,74 L96.2,74 C97.1,74 97.8,74.7 97.8,75.6 C97.8,76.5 97,77.2 96.2,77.2 Z" id="Shape" fill="#5EB6FF"></path>
                <path d="M96.2,114.8 L79.8,114.8 C78.9,114.8 78.2,114.1 78.2,113.2 C78.2,112.3 78.9,111.6 79.8,111.6 L96.2,111.6 C97.1,111.6 97.8,112.3 97.8,113.2 C97.8,114.1 97,114.8 96.2,114.8 Z" id="Shape" fill="#5EB6FF"></path>
                <path d="M96.2,123.1 L79.8,123.1 C78.9,123.1 78.2,122.4 78.2,121.5 C78.2,120.6 78.9,119.9 79.8,119.9 L96.2,119.9 C97.1,119.9 97.8,120.6 97.8,121.5 C97.8,122.4 97,123.1 96.2,123.1 Z" id="Shape" fill="#5EB6FF"></path>
            </g>
            <path d="M97.8398079,38 C97.0432682,38 96.4198893,37.3689482 96.4198893,36.5626043 L96.4198893,35.5459098 C95.5194531,35.4407346 94.6190169,35.1953255 93.8917415,34.8447412 C93.1644661,34.4941569 92.8181445,33.687813 93.0952018,32.9165275 C93.3029948,32.2854758 93.8917415,31.8647746 94.5151204,31.8647746 C94.7229134,31.8647746 94.9307064,31.8998331 95.1384993,32.0050083 C95.6579818,32.2504174 96.4545215,32.5308848 97.4588542,32.5308848 C98.705612,32.5308848 99.571416,31.8647746 99.571416,30.8831386 C99.571416,30.2170284 99.2943587,29.4808013 97.3549577,28.7095159 C95.2077637,27.8681135 93.0259375,26.6410684 93.0259375,23.9415693 C93.0259375,21.803005 94.4112239,20.1202003 96.5930501,19.524207 L96.5930501,18.4373957 C96.5930501,17.6310518 97.216429,17 98.0129687,17 C98.8095085,17 99.4328874,17.6310518 99.4328874,18.4373957 L99.4328874,19.3489149 C100.125531,19.4190317 100.783542,19.5943239 101.337656,19.8397329 C102.099564,20.1552588 102.445885,21.0317195 102.168828,21.803005 C101.926403,22.3989983 101.372288,22.7846411 100.74891,22.7846411 C100.541117,22.7846411 100.367956,22.7495826 100.160163,22.6794658 C99.571416,22.4340568 98.9134049,22.293823 98.2207617,22.293823 C96.9047396,22.293823 96.4198893,22.9949917 96.4198893,23.6611018 C96.4198893,24.3622705 96.7662109,24.8530885 98.9134049,25.7295492 C100.818174,26.5008347 103,27.7979967 103,30.7429048 C103,32.951586 101.510817,34.7746244 99.2597266,35.3706177 L99.2597266,36.5626043 C99.2943587,37.3338898 98.6363477,38 97.8398079,38 Z" id="Shape" fill="#89E89E"></path>
        </g>
    </g>
</svg>